CA2020_project1_stage4/CPU.vcd
$date
	Mon Dec 14 23:01:49 2020
$end
$version
	Icarus Verilog
$end
$timescale
	1s
$end
$scope module TestBench $end
$var reg 1 ! Clk $end
$var reg 1 " Reset $end
$var reg 1 # Start $end
$var integer 32 $ counter [31:0] $end
$var integer 32 % flush [31:0] $end
$var integer 32 & i [31:0] $end
$var integer 32 ' outfile [31:0] $end
$var integer 32 ( stall [31:0] $end
$scope module CPU $end
$var wire 1 ! clk_i $end
$var wire 1 " rst_i $end
$var wire 1 # start_i $end
$var wire 32 ) instr [31:0] $end
$var wire 1 * Stall $end
$var wire 32 + SignExtend_Result [31:0] $end
$var wire 32 , ShiftLeft_Result [31:0] $end
$var wire 32 - RS2data [31:0] $end
$var wire 32 . RS1data [31:0] $end
$var wire 32 / PC_o [31:0] $end
$var wire 32 0 PC_Four [31:0] $end
$var wire 32 1 PC_Branch [31:0] $end
$var wire 1 2 PCWrite $end
$var wire 1 3 NoOp $end
$var wire 32 4 MemRead_Result [31:0] $end
$var wire 32 5 MUX_PC_Result [31:0] $end
$var wire 32 6 MUX_MemtoReg_Result [31:0] $end
$var wire 32 7 MUX_ALUSRC_Result [31:0] $end
$var wire 1 8 MEMWB_RegWrite $end
$var wire 5 9 MEMWB_RDAddr [4:0] $end
$var wire 1 : MEMWB_MemtoReg $end
$var wire 32 ; MEMWB_MemReadData [31:0] $end
$var wire 32 < MEMWB_ALUResult [31:0] $end
$var wire 32 = IFID_pc [31:0] $end
$var wire 32 > IFID_instr [31:0] $end
$var wire 10 ? IDEX_funct [9:0] $end
$var wire 32 @ IDEX_SignExtend [31:0] $end
$var wire 1 A IDEX_RegWrite $end
$var wire 32 B IDEX_RS2Data [31:0] $end
$var wire 5 C IDEX_RS2Addr [4:0] $end
$var wire 32 D IDEX_RS1Data [31:0] $end
$var wire 5 E IDEX_RS1Addr [4:0] $end
$var wire 5 F IDEX_RDAddr [4:0] $end
$var wire 1 G IDEX_MemtoReg $end
$var wire 1 H IDEX_MemWrite $end
$var wire 1 I IDEX_MemRead $end
$var wire 1 J IDEX_ALUSrc $end
$var wire 2 K IDEX_ALUOp [1:0] $end
$var wire 32 L Forward_MUX_B_Result [31:0] $end
$var wire 32 M Forward_MUX_A_Result [31:0] $end
$var wire 2 N Forward_B [1:0] $end
$var wire 2 O Forward_A [1:0] $end
$var wire 1 P Flush $end
$var wire 1 Q Equal_Result $end
$var wire 1 R EXMEM_RegWrite $end
$var wire 5 S EXMEM_RDAddr [4:0] $end
$var wire 1 T EXMEM_MemtoReg $end
$var wire 32 U EXMEM_MemWriteData [31:0] $end
$var wire 1 V EXMEM_MemWrite $end
$var wire 1 W EXMEM_MemRead $end
$var wire 32 X EXMEM_ALUResult [31:0] $end
$var wire 1 Y Ctrl_RegWrite $end
$var wire 1 Z Ctrl_MemtoReg $end
$var wire 1 [ Ctrl_MemWrite $end
$var wire 1 \ Ctrl_MemRead $end
$var wire 1 ] Ctrl_Branch $end
$var wire 1 ^ Ctrl_ALUSrc $end
$var wire 2 _ Ctrl_ALUOp [1:0] $end
$var wire 32 ` ALU_Result [31:0] $end
$var wire 4 a ALUCtrl [3:0] $end
$scope module ALU $end
$var wire 32 b data2_i [31:0] $end
$var wire 32 c data1_i [31:0] $end
$var wire 4 d ALUCtrl_i [3:0] $end
$var reg 32 e data_o [31:0] $end
$upscope $end
$scope module ALU_Control $end
$var wire 10 f funct_i [9:0] $end
$var wire 2 g ALUOp_i [1:0] $end
$var reg 4 h ALUCtrl_o [3:0] $end
$upscope $end
$scope module Add_Branch $end
$var wire 32 i data_o [31:0] $end
$var wire 32 j data2_in [31:0] $end
$var wire 32 k data1_in [31:0] $end
$upscope $end
$scope module Add_PC $end
$var wire 32 l data2_in [31:0] $end
$var wire 32 m data_o [31:0] $end
$var wire 32 n data1_in [31:0] $end
$upscope $end
$scope module And $end
$var wire 1 P data_o $end
$var wire 1 Q data2_i $end
$var wire 1 ] data1_i $end
$upscope $end
$scope module Control $end
$var wire 7 o Op_i [6:0] $end
$var wire 1 3 NoOp_i $end
$var reg 2 p ALUOp_o [1:0] $end
$var reg 1 ^ ALUSrc_o $end
$var reg 1 ] Branch_o $end
$var reg 1 \ MemRead_o $end
$var reg 1 [ MemWrite_o $end
$var reg 1 Z MemtoReg_o $end
$var reg 1 Y RegWrite_o $end
$upscope $end
$scope module Data_Memory $end
$var wire 1 ! clk_i $end
$var wire 32 q data_o [31:0] $end
$var wire 32 r data_i [31:0] $end
$var wire 32 s addr_i [31:0] $end
$var wire 1 V MemWrite_i $end
$var wire 1 W MemRead_i $end
$upscope $end
$scope module EXMEM $end
$var wire 32 t ALU_Result_i [31:0] $end
$var wire 1 ! clk_i $end
$var wire 1 # start_i $end
$var wire 1 A RegWrite_i $end
$var wire 5 u RdAddr_i [4:0] $end
$var wire 1 G MemtoReg_i $end
$var wire 1 H MemWrite_i $end
$var wire 32 v MemWrite_Data_i [31:0] $end
$var wire 1 I MemRead_i $end
$var reg 32 w ALU_Result_o [31:0] $end
$var reg 1 W MemRead_o $end
$var reg 32 x MemWrite_Data_o [31:0] $end
$var reg 1 V MemWrite_o $end
$var reg 1 T MemtoReg_o $end
$var reg 5 y RdAddr_o [4:0] $end
$var reg 1 R RegWrite_o $end
$upscope $end
$scope module Equal $end
$var wire 1 Q equal_o $end
$var wire 32 z data2_i [31:0] $end
$var wire 32 { data1_i [31:0] $end
$upscope $end
$scope module Forward_MUX_A $end
$var wire 32 | MEM_ALU_Result_i [31:0] $end
$var wire 32 } MUX_Result_o [31:0] $end
$var wire 32 ~ WB_WriteData_i [31:0] $end
$var wire 2 !" Forward_i [1:0] $end
$var wire 32 "" EX_RS_Data_i [31:0] $end
$var reg 32 #" MUX_Result [31:0] $end
$upscope $end
$scope module Forward_MUX_B $end
$var wire 32 $" MEM_ALU_Result_i [31:0] $end
$var wire 32 %" MUX_Result_o [31:0] $end
$var wire 32 &" WB_WriteData_i [31:0] $end
$var wire 2 '" Forward_i [1:0] $end
$var wire 32 (" EX_RS_Data_i [31:0] $end
$var reg 32 )" MUX_Result [31:0] $end
$upscope $end
$scope module Forwarding_Unit $end
$var wire 2 *" Forward_A_o [1:0] $end
$var wire 2 +" Forward_B_o [1:0] $end
$var wire 5 ," MEM_Rd_i [4:0] $end
$var wire 1 R MEM_RegWrite_i $end
$var wire 1 8 WB_RegWrite_i $end
$var wire 5 -" WB_Rd_i [4:0] $end
$var wire 5 ." EX_Rs2_i [4:0] $end
$var wire 5 /" EX_Rs1_i [4:0] $end
$var reg 2 0" Forward_A_result [1:0] $end
$var reg 2 1" Forward_B_result [1:0] $end
$var reg 1 2" flag_A $end
$var reg 1 3" flag_B $end
$upscope $end
$scope module Hazard_Detection $end
$var wire 5 4" RS1addr_i [4:0] $end
$var wire 5 5" RS2addr_i [4:0] $end
$var wire 5 6" RdAddr_i [4:0] $end
$var wire 1 I MemRead_i $end
$var reg 1 3 NoOp_o $end
$var reg 1 2 PCWrite_o $end
$var reg 1 * Stall_o $end
$upscope $end
$scope module IDEX $end
$var wire 2 7" ALUOp_i [1:0] $end
$var wire 1 ^ ALUSrc_i $end
$var wire 1 \ MemRead_i $end
$var wire 1 [ MemWrite_i $end
$var wire 1 Z MemtoReg_i $end
$var wire 5 8" RS1Addr_i [4:0] $end
$var wire 5 9" RS2Addr_i [4:0] $end
$var wire 5 :" RdAddr_i [4:0] $end
$var wire 1 Y RegWrite_i $end
$var wire 1 ! clk_i $end
$var wire 10 ;" funct_i [9:0] $end
$var wire 1 # start_i $end
$var wire 32 <" SignExtended_i [31:0] $end
$var wire 32 =" RS2Data_i [31:0] $end
$var wire 32 >" RS1Data_i [31:0] $end
$var reg 2 ?" ALUOp_o [1:0] $end
$var reg 1 J ALUSrc_o $end
$var reg 1 I MemRead_o $end
$var reg 1 H MemWrite_o $end
$var reg 1 G MemtoReg_o $end
$var reg 5 @" RS1Addr_o [4:0] $end
$var reg 32 A" RS1Data_o [31:0] $end
$var reg 5 B" RS2Addr_o [4:0] $end
$var reg 32 C" RS2Data_o [31:0] $end
$var reg 5 D" RdAddr_o [4:0] $end
$var reg 1 A RegWrite_o $end
$var reg 32 E" SignExtended_o [31:0] $end
$var reg 10 F" funct_o [9:0] $end
$upscope $end
$scope module IFID $end
$var wire 1 P Flush_i $end
$var wire 1 * Stall_i $end
$var wire 1 ! clk_i $end
$var wire 1 # start_i $end
$var wire 32 G" pc_i [31:0] $end
$var wire 32 H" instr_i [31:0] $end
$var reg 32 I" instr_o [31:0] $end
$var reg 32 J" pc_o [31:0] $end
$upscope $end
$scope module Instruction_Memory $end
$var wire 32 K" instr_o [31:0] $end
$var wire 32 L" addr_i [31:0] $end
$upscope $end
$scope module MEMWB $end
$var wire 32 M" MemAddr_i [31:0] $end
$var wire 32 N" MemRead_Data_i [31:0] $end
$var wire 1 T MemtoReg_i $end
$var wire 5 O" RdAddr_i [4:0] $end
$var wire 1 R RegWrite_i $end
$var wire 1 ! clk_i $end
$var wire 1 # start_i $end
$var reg 32 P" MemAddr_o [31:0] $end
$var reg 32 Q" MemRead_Data_o [31:0] $end
$var reg 1 : MemtoReg_o $end
$var reg 5 R" RdAddr_o [4:0] $end
$var reg 1 8 RegWrite_o $end
$upscope $end
$scope module MUX_ALUSrc $end
$var wire 32 S" data1_i [31:0] $end
$var wire 32 T" data2_i [31:0] $end
$var wire 1 J select_i $end
$var wire 32 U" data_o [31:0] $end
$upscope $end
$scope module MUX_MemtoReg $end
$var wire 32 V" data1_i [31:0] $end
$var wire 32 W" data2_i [31:0] $end
$var wire 1 : select_i $end
$var wire 32 X" data_o [31:0] $end
$upscope $end
$scope module MUX_PC $end
$var wire 32 Y" data1_i [31:0] $end
$var wire 32 Z" data2_i [31:0] $end
$var wire 1 P select_i $end
$var wire 32 [" data_o [31:0] $end
$upscope $end
$scope module PC $end
$var wire 1 2 PCWrite_i $end
$var wire 1 ! clk_i $end
$var wire 32 \" pc_i [31:0] $end
$var wire 1 " rst_i $end
$var wire 1 # start_i $end
$var reg 32 ]" pc_o [31:0] $end
$upscope $end
$scope module Registers $end
$var wire 5 ^" RDaddr_i [4:0] $end
$var wire 32 _" RDdata_i [31:0] $end
$var wire 5 `" RS1addr_i [4:0] $end
$var wire 5 a" RS2addr_i [4:0] $end
$var wire 1 8 RegWrite_i $end
$var wire 1 ! clk_i $end
$var wire 32 b" RS2data_o [31:0] $end
$var wire 32 c" RS1data_o [31:0] $end
$upscope $end
$scope module Shift_Left $end
$var wire 32 d" data_o [31:0] $end
$var wire 32 e" data_i [31:0] $end
$upscope $end
$scope module Sign_Extend $end
$var wire 32 f" data_i [31:0] $end
$var reg 32 g" data_o [31:0] $end
$upscope $end
$upscope $end
$upscope $end
$enddefinitions $end
#0
$dumpvars
b0 g"
b0 f"
b0 e"
b0 d"
b0 c"
b0 b"
b0 a"
b0 `"
b0 _"
b0 ^"
b0 ]"
b100 \"
b100 ["
b0 Z"
b100 Y"
b0 X"
b0 W"
b0 V"
b0 U"
b0 T"
b0 S"
b0 R"
b0 Q"
b0 P"
b0 O"
b0 N"
b0 M"
b0 L"
b11000000000010100010011 K"
b0 J"
b0 I"
b11000000000010100010011 H"
b0 G"
b0 F"
b0 E"
b0 D"
b0 C"
bx B"
b0 A"
bx @"
b0 ?"
b0 >"
b0 ="
b0 <"
b0 ;"
b0 :"
b0 9"
b0 8"
b11 7"
b0 6"
b0 5"
b0 4"
03"
02"
b0 1"
b0 0"
bx /"
bx ."
b0 -"
b0 ,"
b0 +"
b0 *"
b0 )"
b0 ("
b0 '"
b0 &"
b0 %"
b0 $"
b0 #"
b0 ""
b0 !"
b0 ~
b0 }
b0 |
b0 {
b0 z
b0 y
b0 x
b0 w
b0 v
b0 u
b0 t
b0 s
b0 r
b0 q
b11 p
b0 o
b0 n
b100 m
b100 l
b0 k
b0 j
b0 i
b110 h
b0 g
b0 f
b0 e
b110 d
b0 c
b0 b
b110 a
b0 `
b11 _
0^
0]
0\
0[
0Z
0Y
b0 X
0W
0V
b0 U
0T
b0 S
0R
1Q
0P
b0 O
b0 N
b0 M
b0 L
b0 K
0J
0I
0H
0G
b0 F
bx E
b0 D
bx C
b0 B
0A
b0 @
b0 ?
b0 >
b0 =
b0 <
b0 ;
0:
b0 9
08
b0 7
b0 6
b100 5
b0 4
03
12
b0 1
b100 0
b0 /
b0 .
b0 -
b0 ,
b0 +
0*
b11000000000010100010011 )
b0 (
b11 '
b100000 &
b0 %
b0 $
0#
1"
1!
$end
#12
1#
0"
#25
0!
#50
b1010 a
b1010 d
b1010 h
b1100 1
b1100 i
b1100 Z"
b1100 ,
b1100 k
b1100 d"
1^
b0 _
b0 p
b0 7"
1Y
b110 +
b110 <"
b110 e"
b110 g"
b110 5"
b110 9"
b1010 :"
b110 a"
b10011 o
b100000000010110010011 )
b100000000010110010011 H"
b100000000010110010011 K"
b1000 5
b1000 ["
b1000 \"
b11 K
b11 g
b11 ?"
b0 C
b0 ."
b0 B"
b0 E
b0 /"
b0 @"
b11000000000010100010011 >
b11000000000010100010011 I"
b11000000000010100010011 f"
b1000 0
b1000 m
b1000 Y"
b100 /
b100 n
b100 G"
b100 L"
b100 ]"
b1 $
1!
#75
0!
#100
b110 `
b110 e
b110 t
b110 a
b110 d
b110 h
b10 ,
b10 k
b10 d"
b1 +
b1 <"
b1 e"
b1 g"
b1 5"
b1 9"
b1011 :"
b1 a"
b110 7
b110 b
b110 U"
b100000000010010010011 )
b100000000010010010011 H"
b100000000010010010011 K"
b1100 5
b1100 ["
b1100 \"
b110 1
b110 i
b110 Z"
b100 =
b100 j
b100 J"
b100000000010110010011 >
b100000000010110010011 I"
b100000000010110010011 f"
1J
b0 K
b0 g
b0 ?"
1A
b110 C
b110 ."
b110 B"
b1010 F
b1010 u
b1010 6"
b1010 D"
b110 @
b110 E"
b110 T"
b1100 0
b1100 m
b1100 Y"
b1000 /
b1000 n
b1000 G"
b1000 L"
b1000 ]"
b10 $
1!
#125
0!
#150
b1 `
b1 e
b1 t
b1 7
b1 b
b1 U"
b1001 :"
b10101101001000010010110011 )
b10101101001000010010110011 H"
b10101101001000010010110011 K"
b10000 5
b10000 ["
b10000 \"
1R
b1010 S
b1010 y
b1010 ,"
b1010 O"
b110 X
b110 s
b110 w
b110 |
b110 $"
b110 M"
b1 C
b1 ."
b1 B"
b1011 F
b1011 u
b1011 6"
b1011 D"
b1 @
b1 E"
b1 T"
b1010 1
b1010 i
b1010 Z"
b1000 =
b1000 j
b1000 J"
b100000000010010010011 >
b100000000010010010011 I"
b100000000010010010011 f"
b10000 0
b10000 m
b10000 Y"
b1100 /
b1100 n
b1100 G"
b1100 L"
b1100 ]"
b11 $
1!
#175
0!
#200
b0 ,
b0 k
b0 d"
0^
b10 _
b10 p
b10 7"
b0 +
b0 <"
b0 e"
b0 g"
b1011 5"
b1001 4"
b1011 9"
b1001 8"
b1000 ;"
b1011 a"
b1001 `"
b110011 o
b110 6
b110 ~
b110 &"
b110 X"
b110 _"
b101011000010110010011 )
b101011000010110010011 H"
b101011000010110010011 K"
b10100 5
b10100 ["
b10100 \"
b1100 1
b1100 i
b1100 Z"
b1100 =
b1100 j
b1100 J"
b10101101001000010010110011 >
b10101101001000010010110011 I"
b10101101001000010010110011 f"
b1001 F
b1001 u
b1001 6"
b1001 D"
b1011 S
b1011 y
b1011 ,"
b1011 O"
b1 X
b1 s
b1 w
b1 |
b1 $"
b1 M"
18
b1010 9
b1010 -"
b1010 R"
b1010 ^"
b110 <
b110 P"
b110 V"
b10100 0
b10100 m
b10100 Y"
b10000 /
b10000 n
b10000 G"
b10000 L"
b10000 ]"
b100 $
1!
#225
0!
#250
b1 `
b1 e
b1 t
b101 a
b101 d
b101 h
0Q
b1 .
b1 {
b1 >"
b1 c"
b1 L
b1 v
b1 %"
b1 )"
b1 S"
b1 M
b1 c
b1 }
b1 #"
b10 ,
b10 k
b10 d"
1^
b0 _
b0 p
b0 7"
b1 6
b1 ~
b1 &"
b1 X"
b1 _"
b1 N
b1 '"
b1 +"
b1 1"
12"
b10 O
b10 !"
b10 *"
b10 0"
b1 7
b1 b
b1 U"
b1 +
b1 <"
b1 e"
b1 g"
b1 5"
b1011 4"
b1 9"
b1011 8"
b1011 :"
b0 ;"
b1 a"
b1011 `"
b10011 o
b1011000111000010011 )
b1011000111000010011 H"
b1011000111000010011 K"
b11000 5
b11000 ["
b11000 \"
b1011 9
b1011 -"
b1011 R"
b1011 ^"
b1 <
b1 P"
b1 V"
b1001 S
b1001 y
b1001 ,"
b1001 O"
0J
b10 K
b10 g
b10 ?"
b1011 C
b1011 ."
b1011 B"
b1001 E
b1001 /"
b1001 @"
b1000 ?
b1000 f
b1000 F"
b0 @
b0 E"
b0 T"
b10010 1
b10010 i
b10010 Z"
b10000 =
b10000 j
b10000 J"
b101011000010110010011 >
b101011000010110010011 I"
b101011000010110010011 f"
b11000 0
b11000 m
b11000 Y"
b10100 /
b10100 n
b10100 G"
b10100 L"
b10100 ]"
b101 $
1!
#275
0!
#300
b10 `
b10 e
b10 t
b110 a
b110 d
b110 h
b0 ,
b0 k
b0 d"
b0 L
b0 v
b0 %"
b0 )"
b0 S"
b0 +
b0 <"
b0 e"
b0 g"
b0 5"
b0 9"
b11100 :"
b0 a"
02"
b0 N
b0 '"
b0 +"
b0 1"
b0 O
b0 !"
b0 *"
b0 0"
b11111111111101011000111010010011 )
b11111111111101011000111010010011 H"
b11111111111101011000111010010011 K"
b11100 5
b11100 ["
b11100 \"
b10100 1
b10100 i
b10100 Z"
b10100 =
b10100 j
b10100 J"
b1011000111000010011 >
b1011000111000010011 I"
b1011000111000010011 f"
1J
b0 K
b0 g
b0 ?"
b1 C
b1 ."
b1 B"
b1011 E
b1011 /"
b1011 @"
b1011 F
b1011 u
b1011 6"
b1011 D"
b0 ?
b0 f
b0 F"
b1 @
b1 E"
b1 T"
b1 D
b1 ""
b1 A"
b1 U
b1 r
b1 x
b1001 9
b1001 -"
b1001 R"
b1001 ^"
b11100 0
b11100 m
b11100 Y"
b11000 /
b11000 n
b11000 G"
b11000 L"
b11000 ]"
b110 $
1!
#325
0!
#350
b11111111111111111111111111111110 ,
b11111111111111111111111111111110 k
b11111111111111111111111111111110 d"
b10 M
b10 c
b10 }
b10 #"
12"
b10 O
b10 !"
b10 *"
b10 0"
b0 7
b0 b
b0 U"
b11111111111111111111111111111111 +
b11111111111111111111111111111111 <"
b11111111111111111111111111111111 e"
b11111111111111111111111111111111 g"
b11111 5"
b11111 9"
b11101 :"
b1111111000 ;"
b11111 a"
b11111111111001011000111100010011 )
b11111111111001011000111100010011 H"
b11111111111001011000111100010011 K"
b100000 5
b100000 ["
b100000 \"
b1011 S
b1011 y
b1011 ,"
b1011 O"
b0 U
b0 r
b0 x
b10 X
b10 s
b10 w
b10 |
b10 $"
b10 M"
b0 C
b0 ."
b0 B"
b11100 F
b11100 u
b11100 6"
b11100 D"
b0 @
b0 E"
b0 T"
b10110 1
b10110 i
b10110 Z"
b11000 =
b11000 j
b11000 J"
b11111111111101011000111010010011 >
b11111111111101011000111010010011 I"
b11111111111101011000111010010011 f"
b100000 0
b100000 m
b100000 Y"
b11100 /
b11100 n
b11100 G"
b11100 L"
b11100 ]"
b111 $
1!
#375
0!
#400
b1 `
b1 e
b1 t
b11111111111111111111111111111100 ,
b11111111111111111111111111111100 k
b11111111111111111111111111111100 d"
b10 .
b10 {
b10 >"
b10 c"
b11111111111111111111111111111110 +
b11111111111111111111111111111110 <"
b11111111111111111111111111111110 e"
b11111111111111111111111111111110 g"
b11110 5"
b11110 9"
b11110 :"
b11110 a"
b11111111111111111111111111111111 7
b11111111111111111111111111111111 b
b11111111111111111111111111111111 U"
02"
b1 O
b1 !"
b1 *"
b1 0"
b10 6
b10 ~
b10 &"
b10 X"
b10 _"
b101101010000010001100011 )
b101101010000010001100011 H"
b101101010000010001100011 K"
b100100 5
b100100 ["
b100100 \"
b11000 1
b11000 i
b11000 Z"
b11100 =
b11100 j
b11100 J"
b11111111111001011000111100010011 >
b11111111111001011000111100010011 I"
b11111111111001011000111100010011 f"
b11111 C
b11111 ."
b11111 B"
b11101 F
b11101 u
b11101 6"
b11101 D"
b1111111000 ?
b1111111000 f
b1111111000 F"
b11111111111111111111111111111111 @
b11111111111111111111111111111111 E"
b11111111111111111111111111111111 T"
b11100 S
b11100 y
b11100 ,"
b11100 O"
b1011 9
b1011 -"
b1011 R"
b1011 ^"
b10 <
b10 P"
b10 V"
b100100 0
b100100 m
b100100 Y"
b100000 /
b100000 n
b100000 G"
b100000 L"
b100000 ]"
b1000 $
1!
#425
0!
#450
b0 `
b0 e
b0 t
b110 .
b110 {
b110 >"
b110 c"
b1000 ,
b1000 k
b1000 d"
b10 -
b10 z
b10 ="
b10 b"
1]
0^
b11 _
b11 p
b11 7"
0Y
b0 O
b0 !"
b0 *"
b0 0"
b11111111111111111111111111111110 7
b11111111111111111111111111111110 b
b11111111111111111111111111111110 U"
b100 +
b100 <"
b100 e"
b100 g"
b1011 5"
b1010 4"
b1011 9"
b1010 8"
b1000 :"
b0 ;"
b1011 a"
b1010 `"
b1100011 o
b11111110000000000000010011100011 )
b11111110000000000000010011100011 H"
b11111110000000000000010011100011 K"
b101000 5
b101000 ["
b101000 \"
b11100 9
b11100 -"
b11100 R"
b11100 ^"
b11101 S
b11101 y
b11101 ,"
b11101 O"
b1 X
b1 s
b1 w
b1 |
b1 $"
b1 M"
b11110 C
b11110 ."
b11110 B"
b11110 F
b11110 u
b11110 6"
b11110 D"
b11111111111111111111111111111110 @
b11111111111111111111111111111110 E"
b11111111111111111111111111111110 T"
b10 D
b10 ""
b10 A"
b101000 1
b101000 i
b101000 Z"
b100000 =
b100000 j
b100000 J"
b101101010000010001100011 >
b101101010000010001100011 I"
b101101010000010001100011 f"
b101000 0
b101000 m
b101000 Y"
b100100 /
b100100 n
b100100 G"
b100100 L"
b100100 ]"
b1001 $
1!
#475
0!
#500
b0 `
b0 e
b0 t
b1010 a
b1010 d
b1010 h
1P
1Q
b11111111111111111111111111101000 ,
b11111111111111111111111111101000 k
b11111111111111111111111111101000 d"
b0 -
b0 z
b0 ="
b0 b"
b0 .
b0 {
b0 >"
b0 c"
b11111111111111111111111111110100 +
b11111111111111111111111111110100 <"
b11111111111111111111111111110100 e"
b11111111111111111111111111110100 g"
b0 5"
b0 4"
b0 9"
b0 8"
b1001 :"
b1111111000 ;"
b0 a"
b0 `"
b10 7
b10 b
b10 U"
b110 M
b110 c
b110 }
b110 #"
b10 L
b10 v
b10 %"
b10 )"
b10 S"
b1 6
b1 ~
b1 &"
b1 X"
b1 _"
b100100000010001000100011 )
b100100000010001000100011 H"
b100100000010001000100011 K"
b1100 5
b1100 ["
b1100 \"
b1100 1
b1100 i
b1100 Z"
b100100 =
b100100 j
b100100 J"
b11111110000000000000010011100011 >
b11111110000000000000010011100011 I"
b11111110000000000000010011100011 f"
0J
b11 K
b11 g
b11 ?"
0A
b1011 C
b1011 ."
b1011 B"
b1010 E
b1010 /"
b1010 @"
b1000 F
b1000 u
b1000 6"
b1000 D"
b0 ?
b0 f
b0 F"
b100 @
b100 E"
b100 T"
b10 B
b10 ("
b10 C"
b110 D
b110 ""
b110 A"
b11110 S
b11110 y
b11110 ,"
b11110 O"
b0 X
b0 s
b0 w
b0 |
b0 $"
b0 M"
b11101 9
b11101 -"
b11101 R"
b11101 ^"
b1 <
b1 P"
b1 V"
b101100 0
b101100 m
b101100 Y"
b101000 /
b101000 n
b101000 G"
b101000 L"
b101000 ]"
b1010 $
1!
#525
0!
#550
0P
b0 7
b0 b
b0 U"
b0 ,
b0 k
b0 d"
0]
b0 6
b0 ~
b0 &"
b0 X"
b0 _"
b0 L
b0 v
b0 %"
b0 )"
b0 S"
b0 M
b0 c
b0 }
b0 #"
b10000 5
b10000 ["
b10000 \"
b0 +
b0 <"
b0 e"
b0 g"
b0 :"
b0 ;"
b0 o
b10101101001000010010110011 )
b10101101001000010010110011 H"
b10101101001000010010110011 K"
b11110 9
b11110 -"
b11110 R"
b11110 ^"
b0 <
b0 P"
b0 V"
0R
b1000 S
b1000 y
b1000 ,"
b1000 O"
b10 U
b10 r
b10 x
b0 C
b0 ."
b0 B"
b0 E
b0 /"
b0 @"
b1001 F
b1001 u
b1001 6"
b1001 D"
b1111111000 ?
b1111111000 f
b1111111000 F"
b11111111111111111111111111110100 @
b11111111111111111111111111110100 E"
b11111111111111111111111111110100 T"
b0 B
b0 ("
b0 C"
b0 D
b0 ""
b0 A"
b0 1
b0 i
b0 Z"
b0 =
b0 j
b0 J"
b0 >
b0 I"
b0 f"
b10000 0
b10000 m
b10000 Y"
b1100 /
b1100 n
b1100 G"
b1100 L"
b1100 ]"
b1011 $
b1 %
1!
#575
0!
#600
0Q
b10 -
b10 z
b10 ="
b10 b"
b1 .
b1 {
b1 >"
b1 c"
b10 _
b10 p
b10 7"
1Y
b1011 5"
b1001 4"
b1011 9"
b1001 8"
b1001 :"
b1000 ;"
b1011 a"
b1001 `"
b110011 o
b101011000010110010011 )
b101011000010110010011 H"
b101011000010110010011 K"
b10100 5
b10100 ["
b10100 \"
b1100 1
b1100 i
b1100 Z"
b1100 =
b1100 j
b1100 J"
b10101101001000010010110011 >
b10101101001000010010110011 I"
b10101101001000010010110011 f"
b0 F
b0 u
b0 6"
b0 D"
b0 ?
b0 f
b0 F"
b0 @
b0 E"
b0 T"
b1001 S
b1001 y
b1001 ,"
b1001 O"
b0 U
b0 r
b0 x
08
b1000 9
b1000 -"
b1000 R"
b1000 ^"
b10100 0
b10100 m
b10100 Y"
b10000 /
b10000 n
b10000 G"
b10000 L"
b10000 ]"
b1100 $
1!
#625
0!
#650
b10 `
b10 e
b10 t
b101 a
b101 d
b101 h
b10 7
b10 b
b10 U"
b10 ,
b10 k
b10 d"
b0 -
b0 z
b0 ="
b0 b"
b10 .
b10 {
b10 >"
b10 c"
1^
b0 _
b0 p
b0 7"
b10 L
b10 v
b10 %"
b10 )"
b10 S"
b1 M
b1 c
b1 }
b1 #"
b1 +
b1 <"
b1 e"
b1 g"
b1 5"
b1011 4"
b1 9"
b1011 8"
b1011 :"
b0 ;"
b1 a"
b1011 `"
b10011 o
b1011000111000010011 )
b1011000111000010011 H"
b1011000111000010011 K"
b11000 5
b11000 ["
b11000 \"
b1001 9
b1001 -"
b1001 R"
b1001 ^"
b0 S
b0 y
b0 ,"
b0 O"
b10 K
b10 g
b10 ?"
1A
b1011 C
b1011 ."
b1011 B"
b1001 E
b1001 /"
b1001 @"
b1001 F
b1001 u
b1001 6"
b1001 D"
b1000 ?
b1000 f
b1000 F"
b10 B
b10 ("
b10 C"
b1 D
b1 ""
b1 A"
b10010 1
b10010 i
b10010 Z"
b10000 =
b10000 j
b10000 J"
b101011000010110010011 >
b101011000010110010011 I"
b101011000010110010011 f"
b11000 0
b11000 m
b11000 Y"
b10100 /
b10100 n
b10100 G"
b10100 L"
b10100 ]"
b1101 $
1!
#675
0!
#700
b11 `
b11 e
b11 t
b110 a
b110 d
b110 h
b0 ,
b0 k
b0 d"
b0 +
b0 <"
b0 e"
b0 g"
b0 5"
b0 9"
b11100 :"
b0 a"
b1 7
b1 b
b1 U"
b10 M
b10 c
b10 }
b10 #"
b0 L
b0 v
b0 %"
b0 )"
b0 S"
b11111111111101011000111010010011 )
b11111111111101011000111010010011 H"
b11111111111101011000111010010011 K"
b11100 5
b11100 ["
b11100 \"
b10100 1
b10100 i
b10100 Z"
b10100 =
b10100 j
b10100 J"
b1011000111000010011 >
b1011000111000010011 I"
b1011000111000010011 f"
1J
b0 K
b0 g
b0 ?"
b1 C
b1 ."
b1 B"
b1011 E
b1011 /"
b1011 @"
b1011 F
b1011 u
b1011 6"
b1011 D"
b0 ?
b0 f
b0 F"
b1 @
b1 E"
b1 T"
b0 B
b0 ("
b0 C"
b10 D
b10 ""
b10 A"
1R
b1001 S
b1001 y
b1001 ,"
b1001 O"
b10 U
b10 r
b10 x
b10 X
b10 s
b10 w
b10 |
b10 $"
b10 M"
b0 9
b0 -"
b0 R"
b0 ^"
b11100 0
b11100 m
b11100 Y"
b11000 /
b11000 n
b11000 G"
b11000 L"
b11000 ]"
b1110 $
1!
#725
0!
#750
b11111111111111111111111111111110 ,
b11111111111111111111111111111110 k
b11111111111111111111111111111110 d"
b10 6
b10 ~
b10 &"
b10 X"
b10 _"
b11 M
b11 c
b11 }
b11 #"
12"
b10 O
b10 !"
b10 *"
b10 0"
b0 7
b0 b
b0 U"
b11111111111111111111111111111111 +
b11111111111111111111111111111111 <"
b11111111111111111111111111111111 e"
b11111111111111111111111111111111 g"
b11111 5"
b11111 9"
b11101 :"
b1111111000 ;"
b11111 a"
b11111111111001011000111100010011 )
b11111111111001011000111100010011 H"
b11111111111001011000111100010011 K"
b100000 5
b100000 ["
b100000 \"
18
b1001 9
b1001 -"
b1001 R"
b1001 ^"
b10 <
b10 P"
b10 V"
b1011 S
b1011 y
b1011 ,"
b1011 O"
b0 U
b0 r
b0 x
b11 X
b11 s
b11 w
b11 |
b11 $"
b11 M"
b0 C
b0 ."
b0 B"
b11100 F
b11100 u
b11100 6"
b11100 D"
b0 @
b0 E"
b0 T"
b10110 1
b10110 i
b10110 Z"
b11000 =
b11000 j
b11000 J"
b11111111111101011000111010010011 >
b11111111111101011000111010010011 I"
b11111111111101011000111010010011 f"
b100000 0
b100000 m
b100000 Y"
b11100 /
b11100 n
b11100 G"
b11100 L"
b11100 ]"
b1111 $
1!
#775
0!
