CA2020_project1_stage2/CPU.vcd
$date
	Mon Dec 14 00:09:36 2020
$end
$version
	Icarus Verilog
$end
$timescale
	1s
$end
$scope module TestBench $end
$var reg 1 ! Clk $end
$var reg 1 " Reset $end
$var reg 1 # Start $end
$var integer 32 $ counter [31:0] $end
$var integer 32 % flush [31:0] $end
$var integer 32 & i [31:0] $end
$var integer 32 ' outfile [31:0] $end
$var integer 32 ( stall [31:0] $end
$scope module CPU $end
$var wire 1 ! clk_i $end
$var wire 1 " rst_i $end
$var wire 1 # start_i $end
$var wire 32 ) instr [31:0] $end
$var wire 32 * SignExtend_Result [31:0] $end
$var wire 32 + ShiftLeft_Result [31:0] $end
$var wire 32 , RS2data [31:0] $end
$var wire 32 - RS1data [31:0] $end
$var wire 32 . PC_o [31:0] $end
$var wire 32 / PC_Four [31:0] $end
$var wire 32 0 PC_Branch [31:0] $end
$var wire 32 1 MemRead_Result [31:0] $end
$var wire 32 2 MUX_PC_Result [31:0] $end
$var wire 32 3 MUX_MemtoReg_Result [31:0] $end
$var wire 32 4 MUX_ALUSRC_Result [31:0] $end
$var wire 1 5 MEMWB_RegWrite $end
$var wire 5 6 MEMWB_RDAddr [4:0] $end
$var wire 1 7 MEMWB_MemtoReg $end
$var wire 32 8 MEMWB_MemReadData [31:0] $end
$var wire 32 9 MEMWB_ALUResult [31:0] $end
$var wire 32 : IFID_pc [31:0] $end
$var wire 32 ; IFID_instr [31:0] $end
$var wire 10 < IDEX_funct [9:0] $end
$var wire 32 = IDEX_SignExtend [31:0] $end
$var wire 1 > IDEX_RegWrite $end
$var wire 32 ? IDEX_RS2Data [31:0] $end
$var wire 5 @ IDEX_RS2Addr [4:0] $end
$var wire 32 A IDEX_RS1Data [31:0] $end
$var wire 5 B IDEX_RS1Addr [4:0] $end
$var wire 5 C IDEX_RDAddr [4:0] $end
$var wire 1 D IDEX_MemtoReg $end
$var wire 1 E IDEX_MemWrite $end
$var wire 1 F IDEX_MemRead $end
$var wire 1 G IDEX_ALUSrc $end
$var wire 2 H IDEX_ALUOp [1:0] $end
$var wire 32 I Forward_MUX_B_Result [31:0] $end
$var wire 32 J Forward_MUX_A_Result [31:0] $end
$var wire 2 K Forward_B [1:0] $end
$var wire 2 L Forward_A [1:0] $end
$var wire 1 M Equal_Result $end
$var wire 1 N EXMEM_RegWrite $end
$var wire 5 O EXMEM_RDAddr [4:0] $end
$var wire 1 P EXMEM_MemtoReg $end
$var wire 32 Q EXMEM_MemWriteData [31:0] $end
$var wire 1 R EXMEM_MemWrite $end
$var wire 1 S EXMEM_MemRead $end
$var wire 32 T EXMEM_ALUResult [31:0] $end
$var wire 1 U Ctrl_RegWrite $end
$var wire 1 V Ctrl_MemtoReg $end
$var wire 1 W Ctrl_MemWrite $end
$var wire 1 X Ctrl_MemRead $end
$var wire 1 Y Ctrl_Branch $end
$var wire 1 Z Ctrl_ALUSrc $end
$var wire 2 [ Ctrl_ALUOp [1:0] $end
$var wire 1 \ And_Result $end
$var wire 32 ] ALU_Result [31:0] $end
$var wire 4 ^ ALUCtrl [3:0] $end
$scope module ALU $end
$var wire 32 _ data2_i [31:0] $end
$var wire 32 ` data1_i [31:0] $end
$var wire 4 a ALUCtrl_i [3:0] $end
$var reg 32 b data_o [31:0] $end
$upscope $end
$scope module ALU_Control $end
$var wire 10 c funct_i [9:0] $end
$var wire 2 d ALUOp_i [1:0] $end
$var reg 4 e ALUCtrl_o [3:0] $end
$upscope $end
$scope module Add_Branch $end
$var wire 32 f data_o [31:0] $end
$var wire 32 g data2_in [31:0] $end
$var wire 32 h data1_in [31:0] $end
$upscope $end
$scope module Add_PC $end
$var wire 32 i data2_in [31:0] $end
$var wire 32 j data_o [31:0] $end
$var wire 32 k data1_in [31:0] $end
$upscope $end
$scope module And $end
$var wire 1 \ data_o $end
$var wire 1 M data2_i $end
$var wire 1 Y data1_i $end
$upscope $end
$scope module Control $end
$var wire 7 l Op_i [6:0] $end
$var reg 2 m ALUOp_o [1:0] $end
$var reg 1 Z ALUSrc_o $end
$var reg 1 Y Branch_o $end
$var reg 1 X MemRead_o $end
$var reg 1 W MemWrite_o $end
$var reg 1 V MemtoReg_o $end
$var reg 1 U RegWrite_o $end
$upscope $end
$scope module Data_Memory $end
$var wire 1 ! clk_i $end
$var wire 32 n data_o [31:0] $end
$var wire 32 o data_i [31:0] $end
$var wire 32 p addr_i [31:0] $end
$var wire 1 R MemWrite_i $end
$var wire 1 S MemRead_i $end
$upscope $end
$scope module EXMEM $end
$var wire 32 q ALU_Result_i [31:0] $end
$var wire 1 ! clk_i $end
$var wire 1 # start_i $end
$var wire 1 > RegWrite_i $end
$var wire 5 r RdAddr_i [4:0] $end
$var wire 1 D MemtoReg_i $end
$var wire 1 E MemWrite_i $end
$var wire 32 s MemWrite_Data_i [31:0] $end
$var wire 1 F MemRead_i $end
$var reg 32 t ALU_Result_o [31:0] $end
$var reg 1 S MemRead_o $end
$var reg 32 u MemWrite_Data_o [31:0] $end
$var reg 1 R MemWrite_o $end
$var reg 1 P MemtoReg_o $end
$var reg 5 v RdAddr_o [4:0] $end
$var reg 1 N RegWrite_o $end
$upscope $end
$scope module Equal $end
$var wire 1 M equal_o $end
$var wire 32 w data2_i [31:0] $end
$var wire 32 x data1_i [31:0] $end
$upscope $end
$scope module Forward_MUX_A $end
$var wire 32 y MEM_ALU_Result_i [31:0] $end
$var wire 32 z MUX_Result_o [31:0] $end
$var wire 32 { WB_WriteData_i [31:0] $end
$var wire 2 | Forward_i [1:0] $end
$var wire 32 } EX_RS_Data_i [31:0] $end
$var reg 32 ~ MUX_Result [31:0] $end
$upscope $end
$scope module Forward_MUX_B $end
$var wire 32 !" MEM_ALU_Result_i [31:0] $end
$var wire 32 "" MUX_Result_o [31:0] $end
$var wire 32 #" WB_WriteData_i [31:0] $end
$var wire 2 $" Forward_i [1:0] $end
$var wire 32 %" EX_RS_Data_i [31:0] $end
$var reg 32 &" MUX_Result [31:0] $end
$upscope $end
$scope module Forwarding_Unit $end
$var wire 2 '" Forward_A_o [1:0] $end
$var wire 2 (" Forward_B_o [1:0] $end
$var wire 5 )" MEM_Rd_i [4:0] $end
$var wire 1 N MEM_RegWrite_i $end
$var wire 1 5 WB_RegWrite_i $end
$var wire 5 *" WB_Rd_i [4:0] $end
$var wire 5 +" EX_Rs2_i [4:0] $end
$var wire 5 ," EX_Rs1_i [4:0] $end
$var reg 2 -" Forward_A_result [1:0] $end
$var reg 2 ." Forward_B_result [1:0] $end
$var reg 1 /" flag_A $end
$var reg 1 0" flag_B $end
$upscope $end
$scope module IDEX $end
$var wire 2 1" ALUOp_i [1:0] $end
$var wire 1 Z ALUSrc_i $end
$var wire 1 X MemRead_i $end
$var wire 1 W MemWrite_i $end
$var wire 1 V MemtoReg_i $end
$var wire 5 2" RS1Addr_i [4:0] $end
$var wire 5 3" RS2Addr_i [4:0] $end
$var wire 5 4" RdAddr_i [4:0] $end
$var wire 1 U RegWrite_i $end
$var wire 1 ! clk_i $end
$var wire 10 5" funct_i [9:0] $end
$var wire 1 # start_i $end
$var wire 32 6" SignExtended_i [31:0] $end
$var wire 32 7" RS2Data_i [31:0] $end
$var wire 32 8" RS1Data_i [31:0] $end
$var reg 2 9" ALUOp_o [1:0] $end
$var reg 1 G ALUSrc_o $end
$var reg 1 F MemRead_o $end
$var reg 1 E MemWrite_o $end
$var reg 1 D MemtoReg_o $end
$var reg 5 :" RS1Addr_o [4:0] $end
$var reg 32 ;" RS1Data_o [31:0] $end
$var reg 5 <" RS2Addr_o [4:0] $end
$var reg 32 =" RS2Data_o [31:0] $end
$var reg 5 >" RdAddr_o [4:0] $end
$var reg 1 > RegWrite_o $end
$var reg 32 ?" SignExtended_o [31:0] $end
$var reg 10 @" funct_o [9:0] $end
$upscope $end
$scope module IFID $end
$var wire 1 \ Flush_i $end
$var wire 1 A" Stall_i $end
$var wire 1 ! clk_i $end
$var wire 1 # start_i $end
$var wire 32 B" pc_i [31:0] $end
$var wire 32 C" instr_i [31:0] $end
$var reg 32 D" instr_o [31:0] $end
$var reg 32 E" pc_o [31:0] $end
$upscope $end
$scope module Instruction_Memory $end
$var wire 32 F" instr_o [31:0] $end
$var wire 32 G" addr_i [31:0] $end
$upscope $end
$scope module MEMWB $end
$var wire 32 H" MemAddr_i [31:0] $end
$var wire 32 I" MemRead_Data_i [31:0] $end
$var wire 1 P MemtoReg_i $end
$var wire 5 J" RdAddr_i [4:0] $end
$var wire 1 N RegWrite_i $end
$var wire 1 ! clk_i $end
$var wire 1 # start_i $end
$var reg 32 K" MemAddr_o [31:0] $end
$var reg 32 L" MemRead_Data_o [31:0] $end
$var reg 1 7 MemtoReg_o $end
$var reg 5 M" RdAddr_o [4:0] $end
$var reg 1 5 RegWrite_o $end
$upscope $end
$scope module MUX_ALUSrc $end
$var wire 32 N" data1_i [31:0] $end
$var wire 32 O" data2_i [31:0] $end
$var wire 1 G select_i $end
$var wire 32 P" data_o [31:0] $end
$upscope $end
$scope module MUX_MemtoReg $end
$var wire 32 Q" data1_i [31:0] $end
$var wire 32 R" data2_i [31:0] $end
$var wire 1 7 select_i $end
$var wire 32 S" data_o [31:0] $end
$upscope $end
$scope module MUX_PC $end
$var wire 32 T" data1_i [31:0] $end
$var wire 32 U" data2_i [31:0] $end
$var wire 1 \ select_i $end
$var wire 32 V" data_o [31:0] $end
$upscope $end
$scope module PC $end
$var wire 1 W" PCWrite_i $end
$var wire 1 ! clk_i $end
$var wire 32 X" pc_i [31:0] $end
$var wire 1 " rst_i $end
$var wire 1 # start_i $end
$var reg 32 Y" pc_o [31:0] $end
$upscope $end
$scope module Registers $end
$var wire 5 Z" RDaddr_i [4:0] $end
$var wire 32 [" RDdata_i [31:0] $end
$var wire 5 \" RS1addr_i [4:0] $end
$var wire 5 ]" RS2addr_i [4:0] $end
$var wire 1 5 RegWrite_i $end
$var wire 1 ! clk_i $end
$var wire 32 ^" RS2data_o [31:0] $end
$var wire 32 _" RS1data_o [31:0] $end
$upscope $end
$scope module Shift_Left $end
$var wire 32 `" data_o [31:0] $end
$var wire 32 a" data_i [31:0] $end
$upscope $end
$scope module Sign_Extend $end
$var wire 32 b" data_i [31:0] $end
$var reg 32 c" data_o [31:0] $end
$upscope $end
$upscope $end
$upscope $end
$enddefinitions $end
#0
$dumpvars
bx c"
b0 b"
bx a"
bx0 `"
b0 _"
b0 ^"
b0 ]"
b0 \"
b0 ["
b0 Z"
b0 Y"
b100 X"
1W"
b100 V"
bx U"
b100 T"
b0 S"
b0 R"
b0 Q"
b0 P"
b0 O"
b0 N"
b0 M"
b0 L"
b0 K"
b0 J"
b0 I"
b0 H"
b0 G"
b101000000000001100010011 F"
b0 E"
b0 D"
b101000000000001100010011 C"
b0 B"
0A"
b0 @"
b0 ?"
b0 >"
b0 ="
bx <"
b0 ;"
bx :"
b0 9"
b0 8"
b0 7"
bx 6"
b0 5"
b0 4"
b0 3"
b0 2"
b11 1"
00"
0/"
b0 ."
b0 -"
bx ,"
bx +"
b0 *"
b0 )"
b0 ("
b0 '"
b0 &"
b0 %"
b0 $"
b0 #"
b0 ""
b0 !"
b0 ~
b0 }
b0 |
b0 {
b0 z
b0 y
b0 x
b0 w
b0 v
b0 u
b0 t
b0 s
b0 r
b0 q
b0 p
b0 o
b0 n
b11 m
b0 l
b0 k
b100 j
b100 i
bx0 h
b0 g
bx f
b110 e
b0 d
b0 c
b0 b
b110 a
b0 `
b0 _
b110 ^
b0 ]
0\
b11 [
0Z
0Y
0X
0W
0V
0U
b0 T
0S
0R
b0 Q
0P
b0 O
0N
1M
b0 L
b0 K
b0 J
b0 I
b0 H
0G
0F
0E
0D
b0 C
bx B
b0 A
bx @
b0 ?
0>
b0 =
b0 <
b0 ;
b0 :
b0 9
b0 8
07
b0 6
05
b0 4
b0 3
b100 2
b0 1
bx 0
b100 /
b0 .
b0 -
b0 ,
bx0 +
bx *
b101000000000001100010011 )
b0 (
b11 '
b100000 &
b0 %
b0 $
0#
1"
1!
$end
#12
1#
0"
#25
0!
#50
b10100 0
b10100 f
b10100 U"
b10100 +
b10100 h
b10100 `"
1Z
b0 [
b0 m
b0 1"
1U
b1010 *
b1010 6"
b1010 a"
b1010 c"
b1010 3"
b110 4"
b1010 ]"
b10011 l
b11000110000001100110011 )
b11000110000001100110011 C"
b11000110000001100110011 F"
b1000 2
b1000 V"
b1000 X"
b11 H
b11 d
b11 9"
b0 @
b0 +"
b0 <"
b0 B
b0 ,"
b0 :"
bx =
bx ?"
bx O"
b101000000000001100010011 ;
b101000000000001100010011 D"
b101000000000001100010011 b"
b1000 /
b1000 j
b1000 T"
b100 .
b100 k
b100 B"
b100 G"
b100 Y"
b1 $
1!
#75
0!
#100
b1010 ]
b1010 b
b1010 q
b0 +
b0 h
b0 `"
0Z
b10 [
b10 m
b10 1"
b0 *
b0 6"
b0 a"
b0 c"
b110 3"
b110 2"
b110 ]"
b110 \"
b110011 l
b1010 4
b1010 _
b1010 P"
b1100 2
b1100 V"
b1100 X"
b100 0
b100 f
b100 U"
b100 :
b100 g
b100 E"
b11000110000001100110011 ;
b11000110000001100110011 D"
b11000110000001100110011 b"
1G
b0 H
b0 d
b0 9"
1>
b1010 @
b1010 +"
b1010 <"
b110 C
b110 r
b110 >"
b1010 =
b1010 ?"
b1010 O"
b1100 /
b1100 j
b1100 T"
b1000 .
b1000 k
b1000 B"
b1000 G"
b1000 Y"
b10 $
1!
#125
0!
#150
b10100 ]
b10100 b
b10100 q
b11 ^
b11 a
b11 e
b1010 J
b1010 `
b1010 z
b1010 ~
b1010 I
b1010 s
b1010 ""
b1010 &"
b1010 N"
10"
b10 K
b10 $"
b10 ("
b10 ."
1/"
b10 L
b10 |
b10 '"
b10 -"
b1010 4
b1010 _
b1010 P"
b10000 2
b10000 V"
b10000 X"
1N
b110 O
b110 v
b110 )"
b110 J"
b1010 T
b1010 p
b1010 t
b1010 y
b1010 !"
b1010 H"
0G
b10 H
b10 d
b10 9"
b110 @
b110 +"
b110 <"
b110 B
b110 ,"
b110 :"
b0 =
b0 ?"
b0 O"
b1000 0
b1000 f
b1000 U"
b1000 :
b1000 g
b1000 E"
b10000 /
b10000 j
b10000 T"
b1100 .
b1100 k
b1100 B"
b1100 G"
b1100 Y"
b11 $
1!
#175
0!
#200
b101000 ]
b101000 b
b101000 q
b10100 4
b10100 _
b10100 P"
b1010 -
b1010 x
b1010 8"
b1010 _"
b1010 ,
b1010 w
b1010 7"
b1010 ^"
b10100 J
b10100 `
b10100 z
b10100 ~
b10100 I
b10100 s
b10100 ""
b10100 &"
b10100 N"
10"
1/"
b10 K
b10 $"
b10 ("
b10 ."
b10 L
b10 |
b10 '"
b10 -"
b1010 3
b1010 {
b1010 #"
b1010 S"
b1010 ["
b10100 2
b10100 V"
b10100 X"
b1100 0
b1100 f
b1100 U"
b1100 :
b1100 g
b1100 E"
b1010 Q
b1010 o
b1010 u
b10100 T
b10100 p
b10100 t
b10100 y
b10100 !"
b10100 H"
15
b110 6
b110 *"
b110 M"
b110 Z"
b1010 9
b1010 K"
b1010 Q"
b10100 /
b10100 j
b10100 T"
b10000 .
b10000 k
b10000 B"
b10000 G"
b10000 Y"
b100 $
1!
#225
0!
#250
b1010000 ]
b1010000 b
b1010000 q
b10100 -
b10100 x
b10100 8"
b10100 _"
b10100 ,
b10100 w
b10100 7"
b10100 ^"
b101000 4
b101000 _
b101000 P"
b10100 3
b10100 {
b10100 #"
b10100 S"
b10100 ["
b101000 I
b101000 s
b101000 ""
b101000 &"
b101000 N"
b101000 J
b101000 `
b101000 z
b101000 ~
b11111111000000110000001110010011 )
b11111111000000110000001110010011 C"
b11111111000000110000001110010011 F"
b11000 2
b11000 V"
b11000 X"
b10100 9
b10100 K"
b10100 Q"
b10100 Q
b10100 o
b10100 u
b101000 T
b101000 p
b101000 t
b101000 y
b101000 !"
b101000 H"
b1010 ?
b1010 %"
b1010 ="
b1010 A
b1010 }
b1010 ;"
b10000 0
b10000 f
b10000 U"
b10000 :
b10000 g
b10000 E"
b11000 /
b11000 j
b11000 T"
b10100 .
b10100 k
b10100 B"
b10100 G"
b10100 Y"
b101 $
1!
#275
0!
#300
b10100000 ]
b10100000 b
b10100000 q
0M
b11111111111111111111111111100000 +
b11111111111111111111111111100000 h
b11111111111111111111111111100000 `"
1Z
b0 [
b0 m
b0 1"
b1010000 4
b1010000 _
b1010000 P"
b101000 -
b101000 x
b101000 8"
b101000 _"
b0 ,
b0 w
b0 7"
b0 ^"
b11111111111111111111111111110000 *
b11111111111111111111111111110000 6"
b11111111111111111111111111110000 a"
b11111111111111111111111111110000 c"
b10000 3"
b111 4"
b1111111000 5"
b10000 ]"
b10011 l
b1010000 J
b1010000 `
b1010000 z
b1010000 ~
b1010000 I
b1010000 s
b1010000 ""
b1010000 &"
b1010000 N"
b101000 3
b101000 {
b101000 #"
b101000 S"
b101000 ["
b11110011100000111000110011 )
b11110011100000111000110011 C"
b11110011100000111000110011 F"
b11100 2
b11100 V"
b11100 X"
b11111111111111111111111111110100 0
b11111111111111111111111111110100 f
b11111111111111111111111111110100 U"
b10100 :
b10100 g
b10100 E"
b11111111000000110000001110010011 ;
b11111111000000110000001110010011 D"
b11111111000000110000001110010011 b"
b10100 ?
b10100 %"
b10100 ="
b10100 A
b10100 }
b10100 ;"
b101000 Q
b101000 o
b101000 u
b1010000 T
b1010000 p
b1010000 t
b1010000 y
b1010000 !"
b1010000 H"
b101000 9
b101000 K"
b101000 Q"
b11100 /
b11100 j
b11100 T"
b11000 .
b11000 k
b11000 B"
b11000 G"
b11000 Y"
b110 $
1!
#325
0!
#350
b10010000 ]
b10010000 b
b10010000 q
b110 ^
b110 a
b110 e
1M
b0 -
b0 x
b0 8"
b0 _"
b0 +
b0 h
b0 `"
0Z
b10 [
b10 m
b10 1"
b1010000 3
b1010000 {
b1010000 #"
b1010000 S"
b1010000 ["
b11111111111111111111111111110000 4
b11111111111111111111111111110000 _
b11111111111111111111111111110000 P"
00"
1/"
b0 K
b0 $"
b0 ("
b0 ."
b10 L
b10 |
b10 '"
b10 -"
b0 I
b0 s
b0 ""
b0 &"
b0 N"
b10100000 J
b10100000 `
b10100000 z
b10100000 ~
b0 *
b0 6"
b0 a"
b0 c"
b11100 3"
b11100 2"
b11100 4"
b1000 5"
b11100 ]"
b11100 \"
b110011 l
b11000000010001000100011 )
b11000000010001000100011 C"
b11000000010001000100011 F"
b100000 2
b100000 V"
b100000 X"
b1010000 9
b1010000 K"
b1010000 Q"
b1010000 Q
b1010000 o
b1010000 u
b10100000 T
b10100000 p
b10100000 t
b10100000 y
b10100000 !"
b10100000 H"
1G
b0 H
b0 d
b0 9"
b10000 @
b10000 +"
b10000 <"
b111 C
b111 r
b111 >"
b1111111000 <
b1111111000 c
b1111111000 @"
b11111111111111111111111111110000 =
b11111111111111111111111111110000 ?"
b11111111111111111111111111110000 O"
b0 ?
b0 %"
b0 ="
b101000 A
b101000 }
b101000 ;"
b11000 0
b11000 f
b11000 U"
b11000 :
b11000 g
b11000 E"
b11110011100000111000110011 ;
b11110011100000111000110011 D"
b11110011100000111000110011 b"
b100000 /
b100000 j
b100000 T"
b11100 .
b11100 k
b11100 B"
b11100 G"
b11100 Y"
b111 $
1!
#375
0!
#400
b0 ]
b0 b
b0 q
b101 ^
b101 a
b101 e
0M
b1000 +
b1000 h
b1000 `"
b10100000 ,
b10100000 w
b10100000 7"
b10100000 ^"
1Z
b1 [
b1 m
b1 1"
1W
0U
b100 *
b100 6"
b100 a"
b100 c"
b110 3"
b0 2"
b100 4"
b10 5"
b110 ]"
b0 \"
b100011 l
b0 4
b0 _
b0 P"
0/"
b0 L
b0 |
b0 '"
b0 -"
b0 J
b0 `
b0 z
b0 ~
b10100000 3
b10100000 {
b10100000 #"
b10100000 S"
b10100000 ["
b101010111100000011 )
b101010111100000011 C"
b101010111100000011 F"
b100100 2
b100100 V"
b100100 X"
b100100 0
b100100 f
b100100 U"
b11100 :
b11100 g
b11100 E"
b11000000010001000100011 ;
b11000000010001000100011 D"
b11000000010001000100011 b"
0G
b10 H
b10 d
b10 9"
b11100 @
b11100 +"
b11100 <"
b11100 B
b11100 ,"
b11100 :"
b11100 C
b11100 r
b11100 >"
b1000 <
b1000 c
b1000 @"
b0 =
b0 ?"
b0 O"
b0 A
b0 }
b0 ;"
b111 O
b111 v
b111 )"
b111 J"
b0 Q
b0 o
b0 u
b10010000 T
b10010000 p
b10010000 t
b10010000 y
b10010000 !"
b10010000 H"
b10100000 9
b10100000 K"
b10100000 Q"
b100100 /
b100100 j
b100100 T"
b100000 .
b100000 k
b100000 B"
b100000 G"
b100000 Y"
b1000 $
1!
#425
0!
#450
b100 ]
b100 b
b100 q
b1001 ^
b1001 a
b1001 e
1M
b0 ,
b0 w
b0 7"
b0 ^"
b0 +
b0 h
b0 `"
b0 [
b0 m
b0 1"
0W
1X
1V
1U
b10010000 3
b10010000 {
b10010000 #"
b10010000 S"
b10010000 ["
b100 4
b100 _
b100 P"
b10100000 I
b10100000 s
b10100000 ""
b10100000 &"
b10100000 N"
b0 *
b0 6"
b0 a"
b0 c"
b0 3"
b101 2"
b11110 4"
b0 ]"
b101 \"
b11 l
b1000000000111000010011 )
b1000000000111000010011 C"
b1000000000111000010011 F"
b101000 2
b101000 V"
b101000 X"
b111 6
b111 *"
b111 M"
b111 Z"
b10010000 9
b10010000 K"
b10010000 Q"
b11100 O
b11100 v
b11100 )"
b11100 J"
b0 T
b0 p
b0 t
b0 y
b0 !"
b0 H"
1G
b1 H
b1 d
b1 9"
1E
0>
b110 @
b110 +"
b110 <"
b0 B
b0 ,"
b0 :"
b100 C
b100 r
b100 >"
b10 <
b10 c
b10 @"
b100 =
b100 ?"
b100 O"
b10100000 ?
b10100000 %"
b10100000 ="
b100000 0
b100000 f
b100000 U"
b100000 :
b100000 g
b100000 E"
b101010111100000011 ;
b101010111100000011 D"
b101010111100000011 b"
b101000 /
b101000 j
b101000 T"
b100100 .
b100100 k
b100100 B"
b100100 G"
b100100 Y"
b1001 $
1!
#475
0!
#500
b0 ]
b0 b
b0 q
b1000 ^
b1000 a
b1000 e
b100 +
b100 h
b100 `"
0X
0V
b10 *
b10 6"
b10 a"
b10 c"
b10 3"
b0 2"
b11100 4"
b0 5"
b10 ]"
b0 \"
b10011 l
b0 4
b0 _
b0 P"
b0 I
b0 s
b0 ""
b0 &"
b0 N"
b0 3
b0 {
b0 #"
b0 S"
b0 ["
b11110011100000111000110011 )
b11110011100000111000110011 C"
b11110011100000111000110011 F"
b101100 2
b101100 V"
b101100 X"
b101000 0
b101000 f
b101000 U"
b100100 :
b100100 g
b100100 E"
b1000000000111000010011 ;
b1000000000111000010011 D"
b1000000000111000010011 b"
b0 H
b0 d
b0 9"
0E
1F
1D
1>
b0 @
b0 +"
b0 <"
b101 B
b101 ,"
b101 :"
b11110 C
b11110 r
b11110 >"
b0 =
b0 ?"
b0 O"
b0 ?
b0 %"
b0 ="
1R
0N
b100 O
b100 v
b100 )"
b100 J"
b10100000 Q
b10100000 o
b10100000 u
b100 T
b100 p
b100 t
b100 y
b100 !"
b100 H"
b11100 6
b11100 *"
b11100 M"
b11100 Z"
b0 9
b0 K"
b0 Q"
b101100 /
b101100 j
b101100 T"
b101000 .
b101000 k
b101000 B"
b101000 G"
b101000 Y"
b1010 $
1!
#525
0!
#550
b10 ]
b10 b
b10 q
b110 ^
b110 a
b110 e
b0 +
b0 h
b0 `"
0Z
b10 [
b10 m
b10 1"
b100 3
b100 {
b100 #"
b100 S"
b100 ["
b101 1
b101 n
b101 I"
b10 4
b10 _
b10 P"
b0 *
b0 6"
b0 a"
b0 c"
b11100 3"
b11100 2"
b1000 5"
b11100 ]"
b11100 \"
b110011 l
b110000 2
b110000 V"
b110000 X"
05
b100 6
b100 *"
b100 M"
b100 Z"
b100 9
b100 K"
b100 Q"
0R
1S
1P
1N
b11110 O
b11110 v
b11110 )"
b11110 J"
b0 Q
b0 o
b0 u
b0 T
b0 p
b0 t
b0 y
b0 !"
b0 H"
0F
0D
b10 @
b10 +"
b10 <"
b0 B
b0 ,"
b0 :"
b11100 C
b11100 r
b11100 >"
b0 <
b0 c
b0 @"
b10 =
b10 ?"
b10 O"
b101000 0
b101000 f
b101000 U"
b101000 :
b101000 g
b101000 E"
b11110011100000111000110011 ;
b11110011100000111000110011 D"
b11110011100000111000110011 b"
b110000 /
b110000 j
b110000 T"
b101100 .
b101100 k
b101100 B"
b101100 G"
b101100 Y"
b1011 $
1!
#575
0!
#600
b100 ]
b100 b
b100 q
b101 ^
b101 a
b101 e
b0 1
b0 n
b0 I"
b10 J
b10 `
b10 z
b10 ~
b10 I
b10 s
b10 ""
b10 &"
b10 N"
10"
b10 K
b10 $"
b10 ("
b10 ."
1/"
b10 L
b10 |
b10 '"
b10 -"
b101 3
b101 {
b101 #"
b101 S"
b101 ["
b110100 2
b110100 V"
b110100 X"
b101100 0
b101100 f
b101100 U"
b101100 :
b101100 g
b101100 E"
0G
b10 H
b10 d
b10 9"
b11100 @
b11100 +"
b11100 <"
b11100 B
b11100 ,"
b11100 :"
b1000 <
b1000 c
b1000 @"
b0 =
b0 ?"
b0 O"
0S
0P
b11100 O
b11100 v
b11100 )"
b11100 J"
b10 T
b10 p
b10 t
b10 y
b10 !"
b10 H"
17
15
b11110 6
b11110 *"
b11110 M"
b11110 Z"
b101 8
b101 L"
b101 R"
b0 9
b0 K"
b0 Q"
b110100 /
b110100 j
b110100 T"
b110000 .
b110000 k
b110000 B"
b110000 G"
b110000 Y"
b1100 $
1!
#625
0!
#650
b10000 ]
b10000 b
b10000 q
b10 -
b10 x
b10 8"
b10 _"
b10 ,
b10 w
b10 7"
b10 ^"
b100 4
b100 _
b100 P"
10"
1/"
b10 K
b10 $"
b10 ("
b10 ."
b10 L
b10 |
b10 '"
b10 -"
b10 3
b10 {
b10 #"
b10 S"
b10 ["
b100 J
b100 `
b100 z
b100 ~
b100 I
b100 s
b100 ""
b100 &"
b100 N"
b111000 2
b111000 V"
b111000 X"
07
b11100 6
b11100 *"
b11100 M"
b11100 Z"
b0 8
b0 L"
b0 R"
b10 9
b10 K"
b10 Q"
b10 Q
b10 o
b10 u
b100 T
b100 p
b100 t
b100 y
b100 !"
b100 H"
b110000 0
b110000 f
b110000 U"
b110000 :
b110000 g
b110000 E"
b111000 /
b111000 j
b111000 T"
b110100 .
b110100 k
b110100 B"
b110100 G"
b110100 Y"
b1101 $
1!
#675
0!
#700
b100000000 ]
b100000000 b
b100000000 q
b10000 4
b10000 _
b10000 P"
b100 -
b100 x
b100 8"
b100 _"
b100 ,
b100 w
b100 7"
b100 ^"
b10000 J
b10000 `
b10000 z
b10000 ~
b10000 I
b10000 s
b10000 ""
b10000 &"
b10000 N"
b100 3
b100 {
b100 #"
b100 S"
b100 ["
b111100 2
b111100 V"
b111100 X"
b110100 0
b110100 f
b110100 U"
b110100 :
b110100 g
b110100 E"
b10 ?
b10 %"
b10 ="
b10 A
b10 }
b10 ;"
b100 Q
b100 o
b100 u
b10000 T
b10000 p
b10000 t
b10000 y
b10000 !"
b10000 H"
b100 9
b100 K"
b100 Q"
b111100 /
b111100 j
b111100 T"
b111000 .
b111000 k
b111000 B"
b111000 G"
b111000 Y"
b1110 $
1!
#725
0!
#750
b10000000000000000 ]
b10000000000000000 b
b10000000000000000 q
b10000 -
b10000 x
b10000 8"
b10000 _"
b10000 ,
b10000 w
b10000 7"
b10000 ^"
b100000000 4
b100000000 _
b100000000 P"
b10000 3
b10000 {
b10000 #"
b10000 S"
b10000 ["
b100000000 I
b100000000 s
b100000000 ""
b100000000 &"
b100000000 N"
b100000000 J
b100000000 `
b100000000 z
b100000000 ~
b11100000010000000100011 )
b11100000010000000100011 C"
b11100000010000000100011 F"
b1000000 2
b1000000 V"
b1000000 X"
b10000 9
b10000 K"
b10000 Q"
b10000 Q
b10000 o
b10000 u
b100000000 T
b100000000 p
b100000000 t
b100000000 y
b100000000 !"
b100000000 H"
b100 ?
b100 %"
b100 ="
b100 A
b100 }
b100 ;"
b111000 0
b111000 f
b111000 U"
b111000 :
b111000 g
b111000 E"
b1000000 /
b1000000 j
b1000000 T"
b111100 .
b111100 k
b111100 B"
b111100 G"
b111100 Y"
b1111 $
1!
#775
0!
#800
b0 ]
b0 b
b0 q
0M
1Z
b1 [
b1 m
b1 1"
1W
0U
b10000000000000000 4
b10000000000000000 _
b10000000000000000 P"
b0 -
b0 x
b0 8"
b0 _"
b10010000 ,
b10010000 w
b10010000 7"
b10010000 ^"
b111 3"
b0 2"
b0 4"
b10 5"
b111 ]"
b0 \"
b100011 l
b10000000000000000 J
b10000000000000000 `
b10000000000000000 z
b10000000000000000 ~
b10000000000000000 I
b10000000000000000 s
b10000000000000000 ""
b10000000000000000 &"
b10000000000000000 N"
b100000000 3
b100000000 {
b100000000 #"
b100000000 S"
b100000000 ["
b11111111111111110000111100010011 )
b11111111111111110000111100010011 C"
b11111111111111110000111100010011 F"
b1000100 2
b1000100 V"
b1000100 X"
b111100 0
b111100 f
b111100 U"
b111100 :
b111100 g
b111100 E"
b11100000010000000100011 ;
b11100000010000000100011 D"
b11100000010000000100011 b"
b10000 ?
b10000 %"
b10000 ="
b10000 A
b10000 }
b10000 ;"
b100000000 Q
b100000000 o
b100000000 u
b10000000000000000 T
b10000000000000000 p
b10000000000000000 t
b10000000000000000 y
b10000000000000000 !"
b10000000000000000 H"
b100000000 9
b100000000 K"
b100000000 Q"
b1000100 /
b1000100 j
b1000100 T"
b1000000 .
b1000000 k
b1000000 B"
b1000000 G"
b1000000 Y"
b10000 $
1!
#825
0!
